%YAML 1.1
%TAG !u! tag:unity3d.com,2011:
--- !u!114 &11400000
MonoBehaviour:
  m_ObjectHideFlags: 0
  m_PrefabParentObject: {fileID: 0}
  m_PrefabInternal: {fileID: 0}
  m_GameObject: {fileID: 0}
  m_Enabled: 1
  m_EditorHideFlags: 0
  m_Script: {fileID: 11500000, guid: 7356d547aca75774687873ae06a9d2d5, type: 3}
  m_Name: Menu
  m_EditorClassIdentifier: 
  _Items:
  - A
  - B
  _RangeList: []
  _Colors:
  - Color: {r: 0, g: 0, b: 0, a: 0}
    Letter: G
  - Color: {r: 1, g: 0, b: 0, a: 1}
    Letter: G
  - Color: {r: 0, g: 0.048275948, b: 1, a: 1}
    Letter: H
  - Color: {r: 0, g: 1, b: 0.75172424, a: 1}
    Letter: G
